Tidy Evaluation
…
  print(!!x) # This doesn't work - need to associate the quoture variable with its data frame
}
starwars %>% example(hair_color)
#> Error in !x: invalid argument type

Fix:

example <- function(df, var, ...) {
  x <- enquo(var)
  
  df %>% select(!!x) %>% print()
}
starwars %>% example(hair_color)
#> # A tibble: 87 x 1
#>       hair_color
#>            <chr>
#>  1         blond
#>  2          <NA>
#>  3          <NA>
#>  4          none
#>  5         brown
#>  6   brown, grey
#>  7         brown
#>  8          <NA>
#>  9         black
#> 10 auburn, white
#> # ... with 77 more rows
…
Fix:

example <- function(df, var) {
  x <- enquo(var)
  
  df %>% 
    mutate(hair_color = if_else(rlang::UQ(x) == "yellow", "blond", rlang::UQ(x)))
}
starwars %>% example(hair_color)
#> # A tibble: 87 x 13
#>                  name height  mass    hair_color  skin_color eye_color
#>                 <chr>  <int> <dbl>         <chr>       <chr>     <chr>
#>  1     Luke Skywalker    172    77         blond        fair      blue
#>  2              C-3PO    167    75          <NA>        gold    yellow
#>  3              R2-D2     96    32          <NA> white, blue       red
#>  4        Darth Vader    202   136          none       white    yellow
#>  5        Leia Organa    150    49         brown       light     brown
#>  6          Owen Lars    178   120   brown, grey       light      blue
#>  7 Beru Whitesun lars    165    75         brown       light      blue
#>  8              R5-D4     97    32          <NA>  white, red       red
#>  9  Biggs Darklighter    183    84         black       light     brown
#> 10     Obi-Wan Kenobi    182    77 auburn, white        fair blue-gray
#> # ... with 77 more rows, and 7 more variables: birth_year <dbl>,
#> #   gender <chr>, homeworld <chr>, species <chr>, films <list>,
#> #   vehicles <list>, starships <list>
…
Fix:

Must have !! in front of quo_name(). Must use := instead of =.

example <- function(df, var) {
  x <- enquo(var)
  
  df %>% 
    mutate(!!quo_name(x) := if_else(rlang::UQ(x) == "yellow", "blond", rlang::UQ(x)))
}
starwars %>% example(hair_color)
#> # A tibble: 87 x 13
#>                  name height  mass    hair_color  skin_color eye_color
#>                 <chr>  <int> <dbl>         <chr>       <chr>     <chr>
#>  1     Luke Skywalker    172    77         blond        fair      blue
#>  2              C-3PO    167    75          <NA>        gold    yellow
#>  3              R2-D2     96    32          <NA> white, blue       red
#>  4        Darth Vader    202   136          none       white    yellow
#>  5        Leia Organa    150    49         brown       light     brown
#>  6          Owen Lars    178   120   brown, grey       light      blue
#>  7 Beru Whitesun lars    165    75         brown       light      blue
#>  8              R5-D4     97    32          <NA>  white, red       red
#>  9  Biggs Darklighter    183    84         black       light     brown
#> 10     Obi-Wan Kenobi    182    77 auburn, white        fair blue-gray
#> # ... with 77 more rows, and 7 more variables: birth_year <dbl>,
#> #   gender <chr>, homeworld <chr>, species <chr>, films <list>,
#> #   vehicles <list>, starships <list>
…
https://github.com/tidyverse/rlang/issues/116

https://stackoverflow.com/questions/27975124/pass-arguments-to-dplyr-functions/44594223#44594223

https://stackoverflow.com/questions/44593596/how-to-pass-strings-denoting-expressions-to-dplyr-0-7-verbs/44593617#44593617

Sometimes, I want to pass a variable name as a string to a function. It then needs to be converted to a quoture for evaluation.

Simple example - Now this works

my_col <- names(starwars[2]) # Have a variable name as a quoted string
my_col <- "mass"
starwars %>% select(!!my_col) # Now this works
#> # A tibble: 87 x 1
#>     mass
#>    <dbl>
#>  1    77
#>  2    75
#>  3    32
#>  4   136
#>  5    49
#>  6   120
#>  7    75
#>  8    32
#>  9    84
#> 10    77
#> # ... with 77 more rows
…
